Clustering on Project Completion Reports
…
We focus on the PCRs:

completion_reports <- 
  reports %>% 
  filter(`Type of report` == "PCR")

The number of available pages per report can be obtained easily:

completion_reports %>% 
  group_by(ID) %>% 
  count()

## # A tibble: 493 x 2
## # Groups:   ID [493]
##    ID             n
##    <chr>      <int>
##  1 1100000082    52
##  2 1100000135    88
##  3 1100000136    22
##  4 1100000166    52
##  5 1100000232    95
##  6 1100000234    59
##  7 1100000235   219
##  8 1100000237    50
##  9 1100000240    61
## 10 1100000241   106
## #  with 483 more rows
…
map_df(1:nrow(table_infos_example_2), extract_lessons_learned, table_infos = table_infos_example_2)

## # A tibble: 2 x 4
##   ID       lessons_learned                                     start_pos end_pos
##   <chr>    <chr>                                                   <int>   <int>
## 1 1100001 "The ongoing and recently completed projects offer       181    5240
## 2 1100001 "The SRDP implementation has actually been a learn       435    6998

In total, we identify Lessons Learned sections for 280 reports written in English and save the extraction in an object called pcr_reports_lessons. This object can be loaded into R:

load("../data/pcr_reports_lessons.rda")
pcr_reports_lessons

## # A tibble: 280 x 4
##    ID       lessons_learned                                    start_pos end_pos
##    <chr>    <chr>                                                  <int>   <int>
##  1 1100000 "Social mobilization processes were not adequatel       715    4153
##  2 1100000 "Participation of all concerned is needed to make      1684    2155
##  3 1100000 "A. General 79. The project\x92s unique contribut        25   17399
##  4 1100000 "A number of lessons derived from the implementat      2025    5356
##  5 1100000 "The lessons learned from the Bingol Mus project       3831    6923
##  6 1100000 "For a project like SCIMP which is multi-discipli       822    2369
##  7 1100000 "A number of observations have been made from the      1673    7820
##  8 1100000 "The key lessons learned from the project impleme      1480    2978
##  9 1100000 "An evaluation of the Project\x92s implementation      1094    4762
## 10 1100000 "6.1. ProjectManasement& communication 6.1.1. Pro        18    4571
## #  with 270 more rows
…
    countries_df <-
      tibble(id = id, name = name)
  }) %>% 
  filter(str_length(id) > 0)

countries_df

load("../data/PCRV/countries_df.rda")
print(countries_df)

## # A tibble: 116 x 2
##    id       name       
##    <chr>    <chr>      
##  1 40973882 Afghanistan
##  2 39673093 Albania    
##  3 40296615 Angola     
##  4 39656424 Argentina  
##  5 39671107 Armenia    
##  6 39671033 Azerbaijan 
##  7 39654343 Bangladesh 
##  8 39694795 Belize     
##  9 39654584 Benin      
## 10 39694749 Bhutan     
## #  with 106 more rows
…
Then, we just have to loop on the indices of the countries_df table to get all the links to the PDFs of the PCRVs.

urls_reports_df <- NULL
for(i in 1:nrow(countries_df)){
  urls_reports_df_tmp <- get_reports_pages_url(i)
  urls_reports_df <-
    urls_reports_df %>% 
    bind_rows(urls_reports_df_tmp)
}

urls_reports_df <- as_tibble(urls_reports_df)
print(urls_reports_df)

## # A tibble: 209 x 6
##    country  country_id year  title                 url                   id_PCRV
##    <chr>    <chr>      <chr> <chr>                 <chr>                 <chr>  
##  1 Afghani 40973882   2018  Rural Microfinance a https://www.ifad.org 0001   
##  2 Albania  39673093   2017  Mountain to Markets  https://www.ifad.org 0002   
##  3 Angola   40296615   2017  Market-oriented Smal https://www.ifad.org 0003   
##  4 Argenti 39656424   2020  Rural Areas Developm https://www.ifad.org 0004   
##  5 Argenti 39656424   2016  Patagonia Rural Deve https://www.ifad.org 0005   
##  6 Argenti 39656424   2013  Proyecto de Desarrol https://www.ifad.org 0006   
##  7 Armenia  39671107   2018  Rural Asset Creation https://www.ifad.org 0007   
##  8 Armenia  39671107   2015  Farmer Market Access https://www.ifad.org 0008   
##  9 Armenia  39671107   2011  Rural areas economic https://www.ifad.org 0009   
## 10 Azerbai 39671033   2016  Rural Development Pr https://www.ifad.org 0010   
## #  with 199 more rows
…
Lastly, IDs of the PCRVs from the metadata can be text from the Lessons Learned part can be merged, and the result can be saved.

df_external_ratings_all_pcrv_texts <- 
  select(`Project ID`, id_PCRV) %>% 
  left_join(
    lessons_learned_df %>% 
      select(id_PCRV, text)
  ) %>% 
  filter(!is.na(text))

print(df_external_ratings_all_pcrv_texts)

## # A tibble: 160 x 34
##    `Project ID` Region Country Project `Evaluation typ Relevance Effectiveness
##    <chr>        <chr>  <chr>   <chr>   <chr>                <dbl>         <dbl>
##  1 1100001501   WCA    Liberia Agricu PCRV                     5             4
##  2 1100001628   APR    Tonga   Tonga  PCRV                     4             4
##  3 1100001600   APR    Sri La Iranam PCRV+                    3             4
##  4 1100001376   NEN    Egypt   Upper  PCRV                     4             4
##  5 1100001391   ESA    Angola  Market PCRV+                    5             4
##  6 1100001479   LAC    Domini Develo PCRV                     3             3
##  7 1100001460   APR    Afghan Rural  PCRV                     5             5
##  8 1100001040   APR    India   North  PCRV                     5             5
##  9 1100001277   NEN    Sudan   Wester PCRV                     4             5
## 10 1100001420   ESA    Tanzan Agricu PCRV                     4             4
## #  with 150 more rows, and 27 more variables: Efficiency <chr>,
## #   Sustainability <chr>, `Project performance` <dbl>, `Rural Poverty
## #   Impact` <chr>, Innovation <dbl>, `Scaling-up` <dbl>, `Gender equality and
## #   women's empowerment` <chr>, `Environment and natural resources
## #   management` <chr>, `Adaptation to climate change` <chr>, `IFAD
## #   performance` <dbl>, `Government performance` <dbl>, `Overall project
## #   achievement` <chr>, `PCR scope` <chr>, `PCR quality (methods, data,
## #   participatory process)` <dbl>, `PCR lessons` <chr>, `PCR candour` <dbl>,
## #   `Overall rating of PCR document` <chr>, `Average disconnect with PCR
…
      select(ID, lessons_learned = translated_text) %>% 
      mutate(language_report = "Spanish")
  ) %>% 
  bind_rows(
    # French (translated)
    pcr_reports_lessons_french_translated %>% 
      bind_rows(
        pcr_reports_lessons_french_add_translated
      ) %>% 
      select(ID, lessons_learned = translated_text) %>% 
      mutate(language_report = "French")
  )
pcr_lessons_learned

## # A tibble: 469 x 3
##    ID       lessons_learned                                      language_report
##    <chr>    <chr>                                                <chr>          
##  1 1100000 "Social mobilization processes were not adequately  English        
##  2 1100000 "Participation of all concerned is needed to make d English        
##  3 1100000 "A. General 79. The project\x92s unique contributio English        
##  4 1100000 "A number of lessons derived from the implementatio English        
##  5 1100000 "The lessons learned from the Bingol Mus project ha English        
##  6 1100000 "For a project like SCIMP which is multi-disciplina English        
##  7 1100000 "A number of observations have been made from the e English        
##  8 1100000 "The key lessons learned from the project implement English        
##  9 1100000 "An evaluation of the Project\x92s implementation s English        
## 10 1100000 "6.1. ProjectManasement& communication 6.1.1. Proie English        
## #  with 459 more rows
…
